\relax 
\providecommand\hyper@newdestlabel[2]{}
\catcode`:\active
\catcode`;\active
\catcode`!\active
\catcode`?\active
\providecommand\HyperFirstAtBeginDocument{\AtBeginDocument}
\HyperFirstAtBeginDocument{\ifx\hyper@anchor\@undefined
\global\let\oldcontentsline\contentsline
\gdef\contentsline#1#2#3#4{\oldcontentsline{#1}{#2}{#3}}
\global\let\oldnewlabel\newlabel
\gdef\newlabel#1#2{\newlabelxx{#1}#2}
\gdef\newlabelxx#1#2#3#4#5#6{\oldnewlabel{#1}{{#2}{#3}}}
\AtEndDocument{\ifx\hyper@anchor\@undefined
\let\contentsline\oldcontentsline
\let\newlabel\oldnewlabel
\fi}
\fi}
\global\let\hyper@last\relax 
\gdef\HyperFirstAtBeginDocument#1{#1}
\providecommand\HyField@AuxAddToFields[1]{}
\providecommand\HyField@AuxAddToCoFields[2]{}
\select@language{french}
\@writefile{toc}{\select@language{french}}
\@writefile{lof}{\select@language{french}}
\@writefile{lot}{\select@language{french}}
\@writefile{toc}{\contentsline {section}{\numberline {1}Introduction}{3}{section.1}}
\@writefile{toc}{\contentsline {subsection}{\numberline {1.1}Objectif}{3}{subsection.1.1}}
\@writefile{toc}{\contentsline {subsection}{\numberline {1.2}Topologie}{3}{subsection.1.2}}
\@writefile{lof}{\contentsline {figure}{\numberline {1}{\ignorespaces Topologie r\IeC {\'e}seau}}{3}{figure.1}}
\@writefile{toc}{\contentsline {section}{\numberline {2}Configuration IP et OSPF}{4}{section.2}}
\@writefile{toc}{\contentsline {subsection}{\numberline {2.1}Routeur de bordure}{4}{subsection.2.1}}
\@writefile{lol}{\contentsline {lstlisting}{\numberline {1}Configuration R1}{4}{lstlisting.1}}
\@writefile{toc}{\contentsline {subsection}{\numberline {2.2}Backbone router}{5}{subsection.2.2}}
\@writefile{lol}{\contentsline {lstlisting}{\numberline {2}Configuration R3}{5}{lstlisting.2}}
\@writefile{toc}{\contentsline {subsection}{\numberline {2.3}Configuration poste client}{6}{subsection.2.3}}
\@writefile{toc}{\contentsline {subsection}{\numberline {2.4}Diagnostic}{6}{subsection.2.4}}
\@writefile{toc}{\contentsline {section}{\numberline {3}Configuration de la QoS}{8}{section.3}}
\@writefile{toc}{\contentsline {subsection}{\numberline {3.1}QoS marking}{8}{subsection.3.1}}
\@writefile{toc}{\contentsline {subsection}{\numberline {3.2}QoS queuing}{9}{subsection.3.2}}
\@writefile{toc}{\contentsline {subsubsection}{\numberline {3.2.1}Policing}{10}{subsubsection.3.2.1}}
\@writefile{toc}{\contentsline {subsubsection}{\numberline {3.2.2}Shaping}{11}{subsubsection.3.2.2}}
